[gd_scene load_steps=39 format=2]

[ext_resource path="res://Assets/bg.jpg" type="Texture" id=1]
[ext_resource path="res://Environments/KenneysIndustrial/Environment.tscn" type="PackedScene" id=2]
[ext_resource path="res://Components/Teleport/Teleport.tscn" type="PackedScene" id=3]
[ext_resource path="res://Assets/Cats-And-Spies.ogg" type="AudioStream" id=4]
[ext_resource path="res://Assets/OpenSans-Bold.otf" type="DynamicFontData" id=5]
[ext_resource path="res://Environments/KenneysIndustrial/sheet.png" type="Texture" id=6]
[ext_resource path="res://Components/PuzzleDoor/PuzzleDoor.tscn" type="PackedScene" id=7]
[ext_resource path="res://Components/PlayerGirl/Player.tscn" type="PackedScene" id=8]
[ext_resource path="res://Components/Cat/Cat.tscn" type="PackedScene" id=9]
[ext_resource path="res://Scenes/Game.gd" type="Script" id=10]
[ext_resource path="res://Scenes/CatDialog.gd" type="Script" id=11]
[ext_resource path="res://Assets/teleport.wav" type="AudioStream" id=12]

[sub_resource type="Animation" id=1]
resource_name = "fall_left"
tracks/0/type = "value"
tracks/0/path = NodePath(".:position")
tracks/0/interp = 1
tracks/0/loop_wrap = true
tracks/0/imported = false
tracks/0/enabled = true
tracks/0/keys = {
"times": PoolRealArray( 0, 1 ),
"transitions": PoolRealArray( 0.217638, 1 ),
"update": 0,
"values": [ Vector2( 2709.06, -2385.13 ), Vector2( 2787.64, -1985.57 ) ]
}
tracks/1/type = "value"
tracks/1/path = NodePath(".:rotation_degrees")
tracks/1/interp = 1
tracks/1/loop_wrap = true
tracks/1/imported = false
tracks/1/enabled = true
tracks/1/keys = {
"times": PoolRealArray( 0, 1 ),
"transitions": PoolRealArray( 0.233258, 1 ),
"update": 0,
"values": [ 91.9455, 0.0 ]
}
tracks/2/type = "value"
tracks/2/path = NodePath(".:scale")
tracks/2/interp = 1
tracks/2/loop_wrap = true
tracks/2/imported = false
tracks/2/enabled = true
tracks/2/keys = {
"times": PoolRealArray( 0, 1 ),
"transitions": PoolRealArray( 0.267943, 1 ),
"update": 0,
"values": [ Vector2( 1, 1 ), Vector2( 2, 2 ) ]
}
tracks/3/type = "value"
tracks/3/path = NodePath(".:visible")
tracks/3/interp = 1
tracks/3/loop_wrap = true
tracks/3/imported = false
tracks/3/enabled = true
tracks/3/keys = {
"times": PoolRealArray( 0, 0.1 ),
"transitions": PoolRealArray( 1, 1 ),
"update": 1,
"values": [ false, true ]
}

[sub_resource type="Animation" id=2]
resource_name = "fall_right"
tracks/0/type = "value"
tracks/0/path = NodePath(".:position")
tracks/0/interp = 1
tracks/0/loop_wrap = true
tracks/0/imported = false
tracks/0/enabled = true
tracks/0/keys = {
"times": PoolRealArray( 0, 0.8 ),
"transitions": PoolRealArray( 0.406126, 1 ),
"update": 0,
"values": [ Vector2( 2709.06, -2385.13 ), Vector2( 3166.31, -1988.08 ) ]
}
tracks/1/type = "value"
tracks/1/path = NodePath(".:rotation_degrees")
tracks/1/interp = 1
tracks/1/loop_wrap = true
tracks/1/imported = false
tracks/1/enabled = true
tracks/1/keys = {
"times": PoolRealArray( 0, 0.8 ),
"transitions": PoolRealArray( 0.143587, 1 ),
"update": 0,
"values": [ 91.9455, -1.72403 ]
}
tracks/2/type = "value"
tracks/2/path = NodePath(".:scale")
tracks/2/interp = 1
tracks/2/loop_wrap = true
tracks/2/imported = false
tracks/2/enabled = true
tracks/2/keys = {
"times": PoolRealArray( 0, 0.8 ),
"transitions": PoolRealArray( 0.176777, 1 ),
"update": 0,
"values": [ Vector2( 1, 1 ), Vector2( -2, 2 ) ]
}
tracks/3/type = "value"
tracks/3/path = NodePath(".:visible")
tracks/3/interp = 1
tracks/3/loop_wrap = true
tracks/3/imported = false
tracks/3/enabled = true
tracks/3/keys = {
"times": PoolRealArray( 0, 0.1 ),
"transitions": PoolRealArray( 1, 1 ),
"update": 1,
"values": [ false, true ]
}

[sub_resource type="DynamicFont" id=3]
size = 20
use_mipmaps = true
use_filter = true
font_data = ExtResource( 5 )

[sub_resource type="RectangleShape2D" id=4]
extents = Vector2( 24.2739, 106.154 )

[sub_resource type="RectangleShape2D" id=5]
extents = Vector2( 53.1372, 10 )

[sub_resource type="Animation" id=6]
length = 8.0
loop = true
tracks/0/type = "value"
tracks/0/path = NodePath(".:position")
tracks/0/interp = 1
tracks/0/loop_wrap = true
tracks/0/imported = false
tracks/0/enabled = true
tracks/0/keys = {
"times": PoolRealArray( 0, 1, 4, 5 ),
"transitions": PoolRealArray( 1, 1, 1, 1 ),
"update": 0,
"values": [ Vector2( 5319.67, 1130.55 ), Vector2( 5319.67, 1130.55 ), Vector2( 5319.67, 0 ), Vector2( 5319.67, 0 ) ]
}

[sub_resource type="Animation" id=7]
length = 10.0
loop = true
tracks/0/type = "value"
tracks/0/path = NodePath(".:position")
tracks/0/interp = 1
tracks/0/loop_wrap = true
tracks/0/imported = false
tracks/0/enabled = true
tracks/0/keys = {
"times": PoolRealArray( 0, 1.1, 5, 6 ),
"transitions": PoolRealArray( 1, 1, 1, 1 ),
"update": 0,
"values": [ Vector2( 3008.93, -570.162 ), Vector2( 3008.93, -570.162 ), Vector2( 3011.33, -1670.03 ), Vector2( 3011.33, -1670.03 ) ]
}

[sub_resource type="DynamicFont" id=8]
size = 30
font_data = ExtResource( 5 )

[sub_resource type="DynamicFont" id=9]
size = 20
use_mipmaps = true
use_filter = true
font_data = ExtResource( 5 )

[sub_resource type="DynamicFont" id=10]
size = 20
use_filter = true
font_data = ExtResource( 5 )

[sub_resource type="StyleBoxFlat" id=11]
bg_color = Color( 0.133333, 0.4, 0.117647, 1 )

[sub_resource type="DynamicFont" id=12]
size = 20
use_mipmaps = true
use_filter = true
font_data = ExtResource( 5 )

[sub_resource type="Animation" id=13]
resource_name = "nene"
length = 1.6
tracks/0/type = "value"
tracks/0/path = NodePath("LineEdit:rect_position")
tracks/0/interp = 1
tracks/0/loop_wrap = true
tracks/0/imported = false
tracks/0/enabled = true
tracks/0/keys = {
"times": PoolRealArray( 0, 0.2, 0.4, 0.6, 0.8, 1, 1.2, 1.4, 1.6 ),
"transitions": PoolRealArray( 1, 1, 1, 1, 1, 1, 1, 1, 1 ),
"update": 0,
"values": [ Vector2( 35, 111 ), Vector2( 25.7596, 111.513 ), Vector2( 35, 111 ), Vector2( 50.914, 112.027 ), Vector2( 37.0534, 112.027 ), Vector2( 25.7596, 111.513 ), Vector2( 35, 111 ), Vector2( 50.914, 112.027 ), Vector2( 37.0534, 112.027 ) ]
}

[sub_resource type="StyleBoxFlat" id=14]
bg_color = Color( 0, 0, 0, 0.607843 )

[sub_resource type="DynamicFont" id=15]
size = 25
use_filter = true
extra_spacing_top = 5
extra_spacing_bottom = 5
extra_spacing_char = 5
extra_spacing_space = 5
font_data = ExtResource( 5 )

[sub_resource type="DynamicFont" id=16]
size = 30
use_filter = true
font_data = ExtResource( 5 )

[sub_resource type="StyleBoxFlat" id=17]
bg_color = Color( 0.478431, 0.00392157, 0.00392157, 1 )

[sub_resource type="DynamicFont" id=18]
size = 20
use_filter = true
font_data = ExtResource( 5 )

[sub_resource type="StyleBoxFlat" id=19]
bg_color = Color( 0.364706, 0.537255, 0.14902, 1 )

[sub_resource type="DynamicFont" id=20]
size = 20
use_filter = true
font_data = ExtResource( 5 )

[sub_resource type="StyleBoxFlat" id=21]
bg_color = Color( 0.431373, 0.0196078, 0.0196078, 1 )

[sub_resource type="DynamicFont" id=22]
size = 20
use_filter = true
font_data = ExtResource( 5 )

[sub_resource type="DynamicFont" id=23]
font_data = ExtResource( 5 )

[sub_resource type="StyleBoxFlat" id=24]
bg_color = Color( 0.772549, 0.772549, 0.772549, 1 )

[sub_resource type="DynamicFont" id=25]
use_filter = true
font_data = ExtResource( 5 )

[sub_resource type="Animation" id=26]
length = 2.0
tracks/0/type = "value"
tracks/0/path = NodePath(".:modulate")
tracks/0/interp = 1
tracks/0/loop_wrap = true
tracks/0/imported = false
tracks/0/enabled = true
tracks/0/keys = {
"times": PoolRealArray( 0, 1, 2 ),
"transitions": PoolRealArray( 1, 1, 1 ),
"update": 0,
"values": [ Color( 1, 1, 1, 0 ), Color( 1, 1, 1, 0 ), Color( 1, 1, 1, 1 ) ]
}

[node name="Game" type="Node2D"]
script = ExtResource( 10 )

[node name="CanvasLayer" type="CanvasLayer" parent="."]
layer = -1

[node name="TextureRect" type="TextureRect" parent="CanvasLayer"]
modulate = Color( 1, 1, 1, 0.486275 )
anchor_right = 1.0
anchor_bottom = 1.0
mouse_filter = 2
texture = ExtResource( 1 )
expand = true
stretch_mode = 7
__meta__ = {
"_edit_use_anchors_": false
}

[node name="EnvBg" parent="." instance=ExtResource( 2 )]
tile_data = PoolIntArray( -2293722, 2, 131075, -2293721, 2, 131075, -2293720, 2, 131075, -2293719, 2, 131075, -2293718, 2, 131075, -2293717, 2, 131075, -2293716, 2, 131075, -2293715, 2, 131075, -2228186, 2, 131075, -2228185, 2, 393225, -2228184, 2, 393225, -2228183, 2, 393225, -2228182, 2, 393225, -2228181, 2, 393225, -2228180, 2, 393225, -2228179, 2, 131075, -2162650, 2, 131075, -2162649, 2, 393225, -2162648, 2, 393225, -2162647, 2, 393225, -2162646, 2, 393225, -2162645, 2, 393225, -2162644, 2, 393225, -2162643, 2, 131075, -2097117, 2, 131075, -2097116, 2, 131075, -2097115, 2, 131075, -2097114, 2, 131075, -2097113, 2, 393225, -2097112, 2, 393225, -2097111, 2, 393225, -2097110, 2, 393225, -2097109, 2, 393225, -2097108, 2, 393225, -2097107, 2, 131075, -2097106, 2, 131075, -2097105, 2, 131075, -2097104, 2, 131075, -2031581, 2, 131075, -2031580, 2, 393225, -2031579, 2, 393225, -2031578, 2, 131075, -2031577, 2, 393225, -2031576, 2, 393225, -2031575, 2, 393225, -2031574, 2, 393225, -2031573, 2, 393225, -2031572, 2, 393225, -2031571, 2, 131075, -2031570, 2, 393225, -2031569, 2, 393225, -2031568, 2, 131075, -1966045, 2, 131075, -1966044, 2, 393225, -1966043, 2, 393225, -1966042, 2, 131075, -1966041, 2, 393225, -1966040, 2, 393225, -1966039, 2, 393225, -1966038, 2, 393225, -1966037, 2, 393225, -1966036, 2, 393225, -1966035, 2, 131075, -1966034, 2, 393225, -1966033, 2, 393225, -1966032, 2, 131075, -1900509, 2, 131075, -1900508, 2, 393225, -1900507, 2, 393225, -1900506, 2, 131075, -1900505, 2, 393225, -1900504, 2, 393225, -1900503, 2, 393225, -1900502, 2, 393225, -1900501, 2, 393225, -1900500, 2, 393225, -1900499, 2, 131075, -1900498, 2, 393225, -1900497, 2, 393225, -1900496, 2, 131075, -1834973, 2, 131075, -1834972, 2, 131075, -1834971, 2, 131075, -1834970, 2, 131075, -1834969, 2, 131075, -1834968, 2, 131075, -1834967, 2, 131075, -1834966, 2, 131075, -1834965, 2, 131075, -1834964, 2, 131075, -1834963, 2, 131075, -1834962, 2, 131075, -1834961, 2, 131075, -1834960, 2, 131075, -1769437, 2, 131075, -1769436, 2, 131075, -1769435, 2, 131075, -1769434, 2, 131075, -1769433, 2, 131075, -1769432, 2, 131075, -1769431, 2, 131075, -1769430, 2, 131075, -1769429, 2, 131075, -1769428, 2, 131075, -1769427, 2, 131075, -1769426, 2, 131075, -1769425, 2, 131075, -1769424, 2, 131075, -1703901, 2, 131075, -1703900, 2, 131075, -1703899, 2, 131075, -1703898, 2, 131075, -1703897, 2, 131075, -1703896, 2, 131075, -1703895, 2, 131075, -1703894, 2, 131075, -1703893, 2, 131075, -1703892, 2, 131075, -1703891, 2, 131075, -1703890, 2, 131075, -1703889, 2, 131075, -1703888, 2, 131075, -1638365, 2, 131075, -1638364, 2, 131075, -1638363, 2, 131075, -1638362, 2, 131075, -1638361, 2, 131075, -1638360, 2, 131075, -1638359, 2, 131075, -1638358, 2, 131075, -1638357, 2, 131075, -1638356, 2, 131075, -1638355, 2, 131075, -1638354, 2, 131075, -1638353, 2, 131075, -1638352, 2, 131075, -1572824, 2, 131075, -1572823, 2, 131075, -1572822, 2, 131075, -1572821, 2, 131075, -1507288, 2, 131075, -1507287, 2, 131075, -1507286, 2, 131075, -1507285, 2, 131075, -1441752, 2, 131075, -1441751, 2, 393226, -1441750, 2, 131075, -1441749, 2, 131075, -1376216, 2, 131075, -1376215, 2, 131075, -1376214, 2, 131075, -1376213, 2, 131075, -1310680, 2, 131075, -1310679, 2, 393226, -1310678, 2, 131075, -1310677, 2, 131075, -1245144, 2, 131075, -1245143, 2, 131075, -1245142, 2, 131075, -1245141, 2, 131075, -1179608, 2, 131075, -1179607, 2, 393226, -1179606, 2, 131075, -1179605, 2, 131075, -1114072, 2, 131075, -1114071, 2, 131075, -1114070, 2, 131075, -1114069, 2, 131075, -1048536, 2, 131075, -1048535, 2, 393226, -1048534, 2, 131075, -1048533, 2, 131075, -983000, 2, 131075, -982999, 2, 131075, -982998, 2, 131075, -982997, 2, 131075, -917464, 2, 131075, -917463, 2, 393226, -917462, 2, 131075, -917461, 2, 131075, -851928, 2, 131075, -851927, 2, 131075, -851926, 2, 131075, -851925, 2, 131075, -786392, 2, 131075, -786391, 2, 393226, -786390, 2, 131075, -786389, 2, 131075, -720856, 2, 131075, -720855, 2, 131075, -720854, 2, 131075, -720853, 2, 131075, -655320, 2, 131075, -655319, 2, 393226, -655318, 2, 131075, -655317, 2, 131075, -589784, 2, 131075, -589783, 2, 131075, -589782, 2, 131075, -589781, 2, 131075, -589780, 1, 131073, -524275, 2, 131075, -524274, 2, 131075, -524273, 2, 131075, -524272, 2, 131075, -524271, 2, 131075, -524270, 2, 131075, -524269, 2, 131075, -524268, 2, 131075, -524267, 2, 131075, -524266, 2, 131075, -524265, 2, 131075, -524264, 2, 131075, -524263, 2, 131075, -524262, 2, 131075, -524260, 2, 131075, -524259, 2, 131075, -524258, 2, 131075, -524257, 2, 131075, -524256, 2, 131075, -524255, 2, 131075, -524254, 2, 131075, -524252, 2, 131075, -524251, 2, 131075, -524250, 2, 131075, -524249, 2, 131075, -524248, 2, 131075, -524247, 2, 131075, -524246, 2, 131075, -524245, 2, 131075, -524244, 2, 131075, -524243, 2, 131075, -524242, 2, 131075, -524241, 2, 131075, -458739, 2, 393225, -458738, 2, 131075, -458737, 2, 393225, -458736, 2, 131075, -458735, 2, 393225, -458734, 2, 131075, -458733, 2, 393225, -458732, 2, 131075, -458731, 2, 393225, -458730, 2, 131075, -458729, 2, 393225, -458728, 2, 131075, -458727, 2, 393225, -458726, 2, 131075, -458725, 2, 393225, -458724, 2, 131075, -458723, 2, 393225, -458722, 2, 131075, -458721, 2, 393225, -458720, 2, 131075, -458719, 2, 393225, -458718, 2, 131075, -458716, 2, 131075, -458715, 2, 393226, -458714, 2, 131075, -458713, 2, 393226, -458712, 2, 131075, -458711, 2, 131075, -458710, 2, 131075, -458709, 2, 131075, -458708, 2, 393226, -458707, 2, 131075, -458706, 2, 393226, -458705, 2, 131075, -393203, 2, 393225, -393202, 2, 131075, -393201, 2, 393225, -393200, 2, 131075, -393199, 2, 393225, -393198, 2, 131075, -393197, 2, 393225, -393196, 2, 131075, -393195, 2, 393225, -393194, 2, 131075, -393193, 2, 393225, -393192, 2, 131075, -393191, 2, 393225, -393190, 2, 131075, -393189, 2, 393225, -393188, 2, 131075, -393187, 2, 393225, -393186, 2, 131075, -393185, 2, 393225, -393184, 2, 131075, -393183, 2, 393225, -393182, 2, 131075, -393180, 2, 131075, -393179, 2, 131075, -393178, 2, 131075, -393177, 2, 131075, -393176, 2, 131075, -393175, 2, 131075, -393174, 2, 131075, -393173, 2, 131075, -393172, 2, 131075, -393171, 2, 131075, -393170, 2, 131075, -393169, 2, 131075, -327667, 2, 131075, -327666, 2, 131075, -327665, 2, 131075, -327664, 2, 131075, -327663, 2, 131075, -327662, 2, 131075, -327661, 2, 131075, -327660, 2, 131075, -327659, 2, 131075, -327658, 2, 131075, -327657, 2, 131075, -327656, 2, 131075, -327655, 2, 131075, -327654, 2, 131075, -327653, 2, 131075, -327652, 2, 131075, -327651, 2, 131075, -327650, 2, 131075, -327649, 2, 131075, -327648, 2, 131075, -327647, 2, 131075, -327646, 2, 131075, -327644, 2, 131075, -327643, 2, 131075, -327642, 2, 131075, -327641, 2, 131075, -327640, 2, 131075, -327639, 2, 131075, -327638, 2, 131075, -327637, 2, 131075, -327636, 2, 131075, -327635, 2, 131075, -327634, 2, 131075, -327633, 2, 131075, -262131, 2, 131075, -262130, 2, 131075, -262129, 2, 131075, -262128, 2, 131075, -262127, 2, 131075, -262126, 2, 131075, -262116, 2, 131075, -262115, 2, 131075, -262114, 2, 131075, -262113, 2, 131075, -262112, 2, 131075, -262111, 2, 131075, -262110, 2, 131075, -262108, 2, 131075, -262107, 2, 131075, -262106, 2, 131075, -262105, 2, 131075, -262104, 2, 131075, -262103, 2, 131075, -262102, 2, 131075, -262101, 2, 131075, -262100, 2, 131075, -262099, 2, 131075, -262098, 2, 131075, -262097, 2, 131075, -262096, 2, 131075, -196595, 2, 131075, -196594, 2, 131075, -196593, 2, 131075, -196592, 2, 131075, -196591, 2, 131075, -196590, 2, 131075, -196589, 2, 131075, -196588, 2, 131075, -196587, 2, 131075, -196586, 2, 131075, -196585, 2, 131075, -196584, 2, 131075, -196583, 2, 131075, -196582, 2, 131075, -196581, 2, 131075, -196580, 2, 131075, -196579, 2, 131075, -196578, 2, 131075, -196577, 2, 131075, -196576, 2, 131075, -196575, 2, 131075, -196574, 2, 131075, -196572, 2, 131075, -196571, 2, 131075, -196570, 2, 131075, -196569, 2, 131075, -196568, 2, 131075, -196567, 2, 131075, -196566, 2, 131075, -196565, 2, 131075, -196564, 2, 131075, -196563, 2, 131075, -196562, 2, 131075, -196561, 2, 131075, -196560, 2, 131075, -196536, 2, 131075, -196535, 2, 131075, -196534, 2, 131075, -196533, 2, 131075, -196532, 2, 131075, -131059, 2, 131075, -131058, 2, 131075, -131057, 2, 131075, -131056, 2, 131075, -131055, 2, 131075, -131054, 2, 131075, -131053, 2, 131075, -131052, 2, 131075, -131051, 2, 131075, -131050, 2, 131075, -131049, 2, 131075, -131048, 2, 131075, -131047, 2, 131075, -131046, 2, 131075, -131045, 2, 131075, -131044, 2, 131075, -131043, 2, 131075, -131042, 2, 131075, -131041, 2, 131075, -131040, 2, 131075, -131039, 2, 131075, -131038, 2, 131075, -131036, 2, 131075, -131035, 2, 131075, -131034, 2, 131075, -131033, 2, 131075, -131032, 2, 131075, -131031, 2, 131075, -131030, 2, 131075, -131029, 2, 131075, -131028, 2, 131075, -131027, 2, 131075, -131026, 2, 131075, -131025, 2, 131075, -131024, 2, 131075, -131000, 2, 131075, -130999, 2, 131075, -130998, 2, 131075, -130997, 2, 131075, -130996, 2, 131075, -65523, 2, 131075, -65522, 2, 131075, -65521, 2, 131075, -65520, 2, 131075, -65519, 2, 131075, -65518, 2, 131075, -65517, 2, 131075, -65516, 2, 131075, -65515, 2, 131075, -65514, 2, 131075, -65513, 2, 131075, -65512, 2, 131075, -65511, 2, 131075, -65510, 2, 131075, -65509, 2, 131075, -65508, 2, 131075, -65507, 2, 131075, -65506, 2, 131075, -65505, 2, 131075, -65504, 2, 131075, -65503, 2, 131075, -65502, 2, 131075, -65500, 2, 131075, -65499, 2, 131075, -65498, 2, 131075, -65497, 2, 131075, -65496, 2, 131075, -65495, 2, 131075, -65494, 2, 131075, -65493, 2, 131075, -65492, 2, 131075, -65491, 2, 131075, -65490, 2, 131075, -65489, 2, 131075, -65464, 2, 131075, -65463, 2, 131075, -65462, 2, 131075, -65461, 2, 131075, -65460, 2, 131075, 13, 2, 131075, 14, 2, 131075, 15, 2, 131075, 16, 2, 131075, 17, 2, 131075, 18, 2, 131075, 19, 2, 131075, 20, 2, 131075, 21, 2, 131075, 22, 2, 131075, 23, 2, 131075, 24, 2, 131075, 25, 2, 131075, 26, 2, 131075, 27, 2, 131075, 28, 2, 131075, 29, 2, 131075, 30, 2, 131075, 31, 2, 131075, 32, 2, 131075, 33, 2, 131075, 34, 2, 131075, 66, 2, 131075, 67, 2, 131075, 68, 2, 131075, 69, 2, 131075, 70, 2, 131075, 71, 2, 131075, 73, 2, 131075, 74, 2, 131075, 75, 2, 131075, 76, 2, 131075, 131069, 1, 65538, 131070, 1, 65538, 131071, 1, 65538, 65536, 1, 65538, 65537, 1, 65538, 65538, 1, 65538, 65539, 1, 65538, 65540, 1, 65538, 65541, 1, 65538, 65542, 1, 65538, 65543, 1, 65538, 65544, 1, 65538, 65551, 2, 131075, 65552, 2, 131075, 65553, 2, 131075, 65554, 2, 131075, 65555, 2, 131075, 65556, 2, 131075, 65557, 2, 131075, 65558, 2, 131075, 65559, 2, 131075, 65560, 2, 131075, 65561, 2, 131075, 65562, 2, 131075, 65563, 2, 131075, 65564, 2, 131075, 65565, 2, 131075, 65566, 2, 131075, 65567, 2, 131075, 65568, 2, 131075, 65569, 2, 131075, 65570, 2, 131075, 65572, 2, 131075, 65573, 2, 131075, 65574, 2, 131075, 65575, 2, 131075, 65576, 2, 131075, 65602, 2, 131075, 65603, 2, 131075, 65604, 2, 131075, 65605, 2, 131075, 65606, 2, 131075, 65607, 2, 131075, 65609, 2, 131075, 65610, 2, 131075, 65611, 2, 131075, 65612, 2, 131075, 131087, 2, 131075, 131088, 2, 131075, 131089, 2, 131075, 131090, 2, 131075, 131091, 2, 131075, 131092, 2, 131075, 131093, 2, 131075, 131094, 2, 131075, 131095, 2, 131075, 131096, 2, 131075, 131097, 2, 131075, 131098, 2, 131075, 131099, 2, 131075, 131100, 2, 131075, 131101, 2, 131075, 131102, 2, 131075, 131103, 2, 131075, 131104, 2, 131075, 131105, 2, 131075, 131106, 2, 131075, 131107, 2, 131075, 131108, 2, 131075, 131109, 2, 131075, 131110, 2, 131075, 131111, 2, 131075, 131112, 2, 131075, 131113, 2, 131075, 131114, 2, 131075, 131138, 2, 131075, 131139, 2, 131075, 131140, 2, 131075, 131141, 2, 131075, 131142, 2, 131075, 131143, 2, 131075, 131145, 2, 131075, 131146, 2, 131075, 131147, 2, 131075, 131148, 2, 131075, 262133, 2, 131072, 262140, 2, 131075, 196622, 2, 131075, 196623, 2, 131075, 196624, 2, 131075, 196625, 2, 131075, 196626, 2, 131075, 196627, 2, 131075, 196628, 2, 131075, 196629, 2, 131075, 196630, 2, 131075, 196631, 2, 131075, 196632, 2, 131075, 196633, 2, 131075, 196634, 2, 131075, 196635, 2, 131075, 196636, 2, 131075, 196637, 2, 131075, 196638, 2, 131075, 196639, 2, 131075, 196640, 2, 131075, 196641, 2, 131075, 196642, 2, 131075, 196643, 2, 131075, 196644, 2, 131075, 196645, 2, 131075, 196646, 2, 131075, 196647, 2, 131075, 196648, 2, 131075, 196649, 2, 131075, 196650, 2, 131075, 196674, 2, 131075, 196675, 2, 131075, 196676, 2, 131075, 196677, 2, 131075, 196678, 2, 131075, 196679, 2, 131075, 196681, 2, 131075, 196682, 2, 131075, 196683, 2, 131075, 196684, 2, 131075, 327631, 2, 131075, 327632, 2, 131075, 327633, 2, 131075, 327634, 2, 131075, 327635, 2, 131075, 327636, 2, 131075, 327637, 2, 131075, 327638, 2, 131075, 327639, 2, 131075, 327640, 2, 131075, 327641, 2, 131075, 327668, 2, 131073, 327670, 2, 196608, 327676, 2, 131075, 262158, 2, 131075, 262159, 2, 131075, 262160, 2, 131075, 262161, 2, 131075, 262162, 2, 131075, 262163, 2, 131075, 262164, 2, 131075, 262165, 2, 131075, 262166, 2, 131075, 262167, 2, 131075, 262168, 2, 131075, 262169, 2, 131075, 262170, 2, 131075, 262171, 2, 131075, 262172, 2, 131075, 262173, 2, 393221, 262174, 2, 131075, 262175, 2, 131075, 262176, 2, 131075, 262177, 2, 131075, 262178, 2, 131075, 262179, 2, 131075, 262180, 2, 131075, 262181, 2, 131075, 262182, 2, 131075, 262183, 2, 131075, 262184, 2, 131075, 262185, 2, 131075, 262186, 2, 131075, 262210, 2, 131075, 262211, 2, 131075, 262212, 2, 131075, 262213, 2, 131075, 262214, 2, 131075, 262215, 2, 131075, 262217, 2, 131075, 262218, 2, 131075, 262219, 2, 131075, 262220, 2, 131075, 393167, 2, 131075, 393168, 2, 393226, 393169, 2, 131075, 393170, 2, 131075, 393171, 2, 131075, 393172, 2, 131075, 393173, 2, 131075, 393174, 2, 131075, 393175, 2, 131075, 393176, 2, 131075, 393177, 2, 131075, 393178, 2, 393219, 393179, 2, 393219, 393180, 2, 393219, 393199, 2, 6, 393200, 2, 2, 393201, 2, 2, 393202, 2, 2, 393203, 2, 2, 393204, 2, 2, 393205, 2, 2, 393206, 2, 2, 393207, 2, 2, 393208, 2, 2, 393209, 2, 2, 393210, 2, 2, 393211, 2, 2, 327703, 2, 131075, 327704, 2, 131075, 327705, 2, 131075, 327706, 2, 131075, 327707, 2, 131075, 327708, 2, 131075, 327709, 2, 131075, 327718, 2, 131075, 327719, 2, 131075, 327720, 2, 131075, 327721, 2, 131075, 327722, 2, 131075, 327746, 2, 131075, 327747, 2, 131075, 327748, 2, 131075, 327749, 2, 131075, 327750, 2, 131075, 327751, 2, 131075, 327753, 2, 131075, 327754, 2, 131075, 327755, 2, 131075, 327756, 2, 131075, 458703, 2, 131075, 458704, 2, 131075, 458705, 2, 131075, 458706, 2, 131075, 458707, 2, 131075, 458708, 2, 131075, 458709, 2, 131075, 458710, 2, 131075, 458711, 2, 131075, 458712, 2, 131075, 458713, 2, 131075, 458718, 2, 2, 458719, 2, 2, 458720, 2, 2, 458721, 2, 2, 458722, 2, 3, 458723, 1, 196608, 458724, 1, 196608, 458725, 1, 196608, 458726, 1, 196608, 458727, 1, 196608, 458728, 2, 1, 458729, 2, 2, 458730, 2, 2, 458731, 2, 2, 458732, 2, 2, 458733, 2, 2, 458734, 2, 2, 458735, 2, 65542, 458736, 2, 4, 458737, 2, 4, 458738, 2, 4, 458739, 2, 4, 458740, 2, 4, 458741, 2, 4, 458742, 2, 4, 458743, 2, 4, 458744, 2, 4, 458745, 2, 4, 458746, 2, 4, 458747, 2, 4, 458748, 2, 4, 393239, 2, 131075, 393240, 2, 131075, 393241, 2, 131075, 393242, 2, 131075, 393243, 2, 131075, 393244, 2, 131075, 393245, 2, 131075, 393255, 2, 131075, 393256, 2, 131075, 393257, 2, 131075, 393258, 2, 131075, 393282, 2, 131075, 393283, 2, 131075, 393284, 2, 131075, 393285, 2, 131075, 393286, 2, 131075, 393287, 2, 131075, 393289, 2, 131075, 393290, 2, 131075, 393291, 2, 131075, 393292, 2, 131075, 524239, 2, 131075, 524240, 2, 131075, 524241, 2, 131075, 524242, 2, 131075, 524243, 2, 131075, 524244, 2, 131075, 524245, 2, 131075, 524246, 2, 131075, 524247, 2, 131075, 524248, 2, 131075, 524256, 1, 196613, 524257, 1, 196612, 524258, 1, 196613, 524259, 1, 196612, 524263, 1, 196613, 524264, 1, 196612, 524265, 1, 196613, 524266, 1, 196612, 458791, 2, 131075, 458792, 2, 131075, 458793, 2, 131075, 458794, 2, 131075, 458797, 2, 393225, 458798, 2, 393225, 458818, 2, 131075, 458819, 2, 131075, 458820, 2, 131075, 458821, 2, 131075, 458822, 2, 131075, 458823, 2, 131075, 458825, 2, 131075, 458826, 2, 131075, 458827, 2, 131075, 458828, 2, 131075, 589793, 1, 196613, 589794, 1, 196612, 589800, 1, 196613, 589801, 1, 196612, 524300, 2, 131075, 524301, 2, 131075, 524302, 2, 131075, 524303, 2, 131075, 524304, 2, 131075, 524305, 2, 131075, 524306, 2, 131075, 524307, 2, 131075, 524308, 2, 131075, 524309, 2, 131075, 524310, 2, 131075, 524311, 2, 131075, 524312, 2, 131075, 524313, 2, 131075, 524314, 2, 131075, 524315, 2, 131075, 524316, 2, 131075, 524317, 2, 131075, 524318, 2, 131075, 524319, 2, 131075, 524320, 2, 131075, 524321, 2, 131075, 524322, 2, 131075, 524323, 2, 131075, 524324, 2, 131075, 524325, 2, 131075, 524326, 2, 131075, 524327, 2, 131075, 524328, 2, 131075, 524329, 2, 131075, 524330, 2, 131075, 524333, 2, 393225, 524334, 2, 393225, 524354, 2, 131075, 524355, 2, 131075, 524356, 2, 131075, 524357, 2, 131075, 524358, 2, 131075, 524359, 2, 131075, 524361, 2, 131075, 524362, 2, 131075, 524363, 2, 131075, 524364, 2, 131075, 655310, 1, 196613, 655311, 1, 196612, 655321, 1, 196613, 655322, 1, 196612, 655329, 1, 196612, 655330, 1, 196613, 655336, 1, 196612, 655337, 1, 196613, 589834, 2, 131075, 589836, 2, 131075, 589837, 2, 131075, 589838, 2, 131075, 589839, 2, 131075, 589840, 2, 131075, 589841, 2, 131075, 589843, 2, 131075, 589845, 2, 131075, 589847, 2, 131075, 589849, 2, 131075, 589851, 2, 131075, 589853, 2, 131075, 589855, 2, 131075, 589856, 2, 327682, 589857, 2, 327683, 589858, 2, 327684, 589859, 2, 131075, 589860, 2, 131075, 589861, 2, 131075, 589862, 2, 131075, 589863, 2, 131075, 589864, 2, 131075, 589890, 2, 131075, 589891, 2, 131075, 589892, 2, 131075, 589893, 2, 131075, 589894, 2, 131075, 589895, 2, 131075, 589897, 2, 131075, 589898, 2, 131075, 589899, 2, 131075, 589900, 2, 131075, 720846, 1, 196612, 720847, 1, 196613, 720865, 1, 196613, 720866, 1, 196612, 720872, 1, 196613, 720873, 1, 196612, 720884, 1, 196613, 720885, 1, 196612, 655370, 2, 131075, 655371, 2, 131075, 655372, 2, 131075, 655373, 2, 131075, 655374, 2, 131075, 655375, 2, 131075, 655376, 2, 131075, 655377, 2, 131075, 655378, 2, 131075, 655379, 2, 131075, 655380, 2, 131075, 655381, 2, 131075, 655382, 2, 131075, 655383, 2, 131075, 655384, 2, 131075, 655385, 2, 131075, 655386, 2, 131075, 655387, 2, 131075, 655388, 2, 131075, 655389, 2, 131075, 655390, 2, 131075, 655391, 2, 131075, 655392, 2, 131075, 655393, 2, 131075, 655394, 2, 131075, 655395, 2, 131075, 655396, 2, 131075, 655397, 2, 131075, 655398, 2, 131075, 655399, 2, 131075, 655405, 2, 393225, 655406, 2, 393225, 655426, 2, 131075, 655427, 2, 131075, 655428, 2, 131075, 655429, 2, 131075, 655430, 2, 131075, 655431, 2, 131075, 655433, 2, 131075, 655434, 2, 131075, 655435, 2, 131075, 655436, 2, 131075, 786382, 1, 196613, 786383, 1, 196612, 786401, 1, 196612, 786402, 1, 196613, 786408, 1, 196612, 786409, 1, 196613, 720906, 2, 131075, 720907, 2, 131075, 720908, 2, 131075, 720909, 2, 131075, 720910, 2, 131075, 720911, 2, 131075, 720912, 2, 131075, 720913, 2, 131075, 720914, 2, 131075, 720915, 2, 131075, 720916, 2, 131075, 720917, 2, 131075, 720918, 2, 131075, 720919, 2, 131075, 720920, 2, 131075, 720921, 2, 131075, 720922, 2, 131075, 720923, 2, 131075, 720924, 2, 131075, 720925, 2, 131075, 720926, 2, 131075, 720927, 2, 131075, 720928, 2, 131075, 720929, 2, 131075, 720930, 2, 131075, 720931, 2, 131075, 720932, 2, 131075, 720933, 2, 131075, 720934, 2, 131075, 720941, 2, 393225, 720942, 2, 393225, 720962, 2, 131075, 720963, 2, 131075, 720964, 2, 131075, 720965, 2, 131075, 720966, 2, 131075, 720967, 2, 131075, 720969, 2, 131075, 720970, 2, 131075, 720971, 2, 131075, 720972, 2, 131075, 851918, 1, 196612, 851919, 1, 196613, 851937, 1, 131073, 851938, 1, 131073, 851944, 1, 131073, 851945, 1, 131073, 786442, 2, 131075, 786443, 2, 131075, 786444, 2, 131075, 786445, 2, 131075, 786446, 2, 131075, 786447, 2, 131075, 786448, 2, 131075, 786456, 2, 131075, 786457, 2, 131075, 786458, 2, 131075, 786459, 2, 131075, 786460, 2, 131075, 786475, 2, 131075, 786476, 2, 131075, 786477, 2, 131075, 786478, 2, 131075, 786479, 2, 131075, 786498, 2, 131075, 786499, 2, 131075, 786500, 2, 131075, 786501, 2, 131075, 786502, 2, 131075, 786503, 2, 131075, 786505, 2, 131075, 786506, 2, 131075, 786507, 2, 131075, 786508, 2, 131075, 917454, 1, 65538, 917455, 1, 65538, 917473, 1, 131073, 917474, 1, 131073, 917480, 1, 131073, 917481, 1, 131073, 917491, 1, 196612, 917492, 1, 131073, 851978, 2, 131075, 851979, 2, 131075, 851980, 2, 131075, 851981, 2, 131075, 851982, 2, 131075, 851983, 2, 131075, 851986, 2, 131075, 851987, 2, 131075, 851988, 2, 131075, 851989, 2, 131075, 851990, 2, 131075, 851991, 2, 131075, 851992, 2, 131075, 851993, 2, 131075, 851994, 2, 131075, 851995, 2, 131075, 851996, 2, 131075, 851997, 2, 131075, 851998, 2, 131075, 851999, 2, 131075, 852000, 2, 131075, 852001, 2, 131075, 852002, 2, 131075, 852003, 2, 131075, 852004, 2, 131075, 852005, 2, 131075, 852006, 2, 131075, 852007, 2, 131075, 852008, 2, 131075, 852009, 2, 131075, 852010, 2, 131075, 852011, 2, 131075, 852012, 2, 131075, 852013, 2, 131075, 852014, 2, 131075, 852015, 2, 131075, 852016, 1, 131073, 852017, 1, 196612, 852018, 1, 196612, 852019, 1, 196613, 852034, 2, 131075, 852035, 2, 131075, 852036, 2, 131075, 852037, 2, 131075, 852038, 2, 131075, 852039, 1, 65538, 852041, 1, 65538, 852042, 2, 131075, 852043, 2, 131075, 852044, 2, 131075, 982990, 1, 65538, 982991, 1, 65538, 983009, 1, 131073, 983010, 1, 131073, 983016, 1, 131073, 983017, 1, 131073, 983028, 1, 131073, 917516, 2, 131075, 917517, 2, 131075, 917518, 2, 131075, 917519, 2, 131075, 917521, 2, 131075, 917522, 2, 131075, 917523, 2, 131075, 917524, 2, 131075, 917525, 2, 131075, 917526, 2, 131075, 917527, 2, 131075, 917528, 2, 131075, 917529, 2, 131075, 917530, 2, 131075, 917531, 2, 131075, 917532, 2, 131075, 917533, 2, 131075, 917534, 2, 131075, 917535, 2, 131075, 917536, 2, 131075, 917537, 2, 131075, 917538, 2, 131075, 917539, 2, 131075, 917540, 2, 131075, 917541, 2, 131075, 917542, 2, 131075, 917543, 2, 131075, 917544, 2, 131075, 917545, 2, 131075, 917546, 2, 131075, 917547, 2, 131075, 917548, 2, 131075, 917549, 2, 131075, 917550, 2, 131075, 917551, 2, 131075, 917552, 1, 131073, 917553, 1, 196612, 917554, 1, 196612, 917555, 1, 196612, 917569, 1, 131073, 917570, 2, 131075, 917571, 2, 131075, 917572, 2, 131075, 917573, 2, 131075, 917574, 2, 131075, 917575, 2, 131075, 917576, 2, 131075, 917577, 2, 131075, 917578, 2, 131075, 917579, 2, 131075, 917580, 2, 131075, 1048526, 1, 65538, 1048527, 1, 65538, 1048545, 1, 131073, 1048546, 1, 131073, 1048552, 1, 131073, 1048553, 1, 131073, 1048564, 1, 131073, 983052, 2, 131075, 983053, 2, 131075, 983054, 2, 131075, 983055, 2, 131075, 983056, 2, 131075, 983057, 2, 131075, 983058, 2, 131075, 983059, 2, 131075, 983060, 2, 131075, 983061, 2, 131075, 983062, 2, 131075, 983063, 2, 131075, 983064, 2, 131075, 983065, 2, 131075, 983066, 2, 131075, 983067, 2, 131075, 983068, 2, 131075, 983069, 2, 131075, 983070, 2, 131075, 983071, 2, 131075, 983072, 2, 131075, 983073, 2, 131075, 983074, 2, 131075, 983075, 2, 131075, 983076, 2, 131075, 983077, 2, 131075, 983078, 2, 131075, 983079, 2, 131075, 983080, 2, 131075, 983081, 2, 131075, 983082, 2, 131075, 983083, 2, 131075, 983084, 2, 131075, 983085, 2, 131075, 983086, 2, 131075, 983087, 2, 131075, 983088, 2, 131075, 983089, 2, 131075, 983090, 2, 131075, 983091, 2, 131075, 983106, 2, 131075, 983107, 2, 131075, 983108, 2, 131075, 983109, 2, 131075, 983110, 2, 131075, 983111, 2, 131075, 983112, 2, 131075, 983113, 2, 131075, 983114, 2, 131075, 983115, 2, 131075, 983116, 2, 131075, 1114062, 1, 65538, 1114063, 1, 65538, 1114081, 1, 131073, 1114082, 1, 131073, 1114088, 1, 131073, 1114089, 1, 131073, 1114100, 1, 131073, 1048589, 2, 131075, 1048590, 2, 131075, 1048591, 2, 131075, 1048592, 2, 131075, 1048593, 2, 131075, 1048594, 2, 131075, 1048595, 2, 131075, 1048596, 2, 131075, 1048597, 2, 131075, 1048598, 2, 131075, 1048599, 2, 131075, 1048600, 2, 131075, 1048601, 2, 131075, 1048602, 2, 131075, 1048603, 2, 131075, 1048604, 2, 131075, 1048605, 2, 131075, 1048606, 2, 131075, 1048607, 2, 131075, 1048608, 2, 131075, 1048609, 2, 131075, 1048610, 2, 131075, 1048611, 2, 131075, 1048612, 2, 131075, 1048613, 2, 131075, 1048614, 2, 131075, 1048615, 2, 131075, 1048616, 2, 131075, 1048617, 2, 131075, 1048618, 2, 131075, 1048619, 2, 131075, 1048620, 2, 131075, 1048621, 2, 131075, 1048622, 2, 131075, 1048623, 2, 131075, 1048624, 2, 131075, 1048625, 2, 131075, 1048626, 2, 131075, 1048627, 2, 131075, 1048641, 1, 65538, 1048642, 1, 65539, 1048643, 2, 131075, 1048644, 2, 131075, 1048645, 2, 131075, 1048646, 2, 131075, 1048647, 2, 131075, 1048651, 2, 131075, 1048652, 2, 131075, 1179598, 1, 65538, 1179599, 1, 65538, 1179617, 1, 131073, 1179618, 1, 131073, 1179624, 1, 131073, 1179625, 1, 131073, 1179636, 1, 131073, 1114127, 2, 131075, 1114128, 2, 131075, 1114129, 2, 131075, 1114130, 2, 131075, 1114131, 2, 131075, 1114132, 2, 131075, 1114133, 2, 131075, 1114134, 2, 131075, 1114135, 2, 131075, 1114136, 2, 131075, 1114137, 2, 131075, 1114138, 2, 131075, 1114139, 2, 131075, 1114140, 2, 131075, 1114141, 2, 131075, 1114142, 2, 131075, 1114143, 2, 131075, 1114144, 2, 131075, 1114145, 2, 131075, 1114146, 2, 131075, 1114147, 2, 131075, 1114148, 2, 131075, 1114149, 2, 131075, 1114150, 2, 131075, 1114151, 2, 131075, 1114152, 2, 131075, 1114153, 2, 131075, 1114154, 2, 131075, 1114155, 2, 131075, 1114156, 2, 131075, 1114157, 2, 131075, 1114158, 2, 131075, 1114159, 2, 131075, 1114160, 2, 131075, 1114161, 2, 131075, 1114162, 2, 131075, 1114163, 2, 131075, 1114164, 2, 131075, 1114165, 2, 131075, 1114166, 2, 131075, 1114167, 2, 131075, 1114177, 2, 131075, 1114178, 2, 131075, 1114179, 2, 131075, 1114180, 2, 131075, 1114181, 2, 131075, 1114182, 2, 131075, 1114183, 2, 131075, 1114185, 1, 131073, 1114186, 1, 131073, 1114187, 2, 131075, 1114188, 2, 131075, 1245134, 1, 65538, 1245135, 1, 65538, 1245153, 1, 131073, 1245154, 1, 131073, 1245160, 1, 131073, 1245161, 1, 131073, 1245172, 1, 131073, 1179664, 2, 131075, 1179665, 2, 131075, 1179666, 2, 131075, 1179667, 2, 131075, 1179668, 2, 131075, 1179669, 2, 131075, 1179670, 2, 131075, 1179671, 2, 131075, 1179672, 2, 131075, 1179673, 2, 131075, 1179674, 2, 131075, 1179675, 2, 131075, 1179676, 2, 131075, 1179677, 2, 131075, 1179678, 2, 131075, 1179679, 2, 131075, 1179680, 2, 131075, 1179681, 2, 131075, 1179682, 2, 131075, 1179683, 2, 131075, 1179684, 2, 131075, 1179685, 2, 131075, 1179686, 2, 131075, 1179687, 2, 131075, 1179688, 2, 131075, 1179689, 2, 131075, 1179690, 2, 131075, 1179691, 2, 131075, 1179692, 2, 131075, 1179693, 2, 131075, 1179694, 2, 131075, 1179695, 2, 131075, 1179696, 2, 131075, 1179697, 2, 131075, 1179698, 2, 131075, 1179699, 2, 131075, 1179700, 2, 131075, 1179701, 2, 131075, 1179702, 2, 131075, 1179703, 2, 131075, 1179713, 2, 131075, 1179714, 2, 131075, 1179715, 2, 131075, 1179716, 2, 131075, 1179717, 2, 131075, 1179718, 2, 131075, 1179719, 2, 131075, 1179721, 1, 131073, 1179722, 1, 131073, 1179723, 1, 131073 )

[node name="Environment" parent="." instance=ExtResource( 2 )]
tile_data = PoolIntArray( -2359259, 1, 65538, -2359258, 1, 65538, -2359257, 1, 65538, -2359256, 1, 65538, -2359255, 1, 65538, -2359254, 1, 65538, -2359253, 1, 65538, -2359252, 1, 65538, -2359251, 1, 65538, -2359250, 1, 65538, -2293723, 1, 65538, -2293722, 2, 131075, -2293714, 1, 65538, -2228187, 1, 65538, -2228178, 1, 65538, -2162654, 1, 131073, -2162653, 1, 131073, -2162652, 1, 131073, -2162651, 1, 131073, -2162642, 1, 131073, -2162641, 1, 131073, -2162640, 1, 131073, -2162639, 1, 131073, -2097118, 1, 131073, -2097103, 1, 131073, -2031582, 1, 131073, -2031567, 1, 131073, -1966046, 1, 131073, -1966031, 1, 131073, -1900510, 1, 131073, -1900495, 1, 131073, -1834974, 1, 131073, -1834959, 1, 131073, -1769438, 1, 131073, -1769435, 1, 196615, -1769434, 1, 65538, -1769433, 1, 65538, -1769432, 1, 65538, -1769431, 1, 65538, -1769430, 1, 65538, -1769429, 1, 65538, -1769428, 1, 65538, -1769427, 1, 65538, -1769426, 1, 196614, -1769423, 1, 131073, -1703902, 1, 131073, -1703901, 1, 196614, -1703898, 2, 262151, -1703897, 2, 262151, -1703896, 2, 262151, -1703895, 2, 262151, -1703894, 2, 262151, -1703893, 2, 262151, -1703892, 2, 262151, -1703891, 2, 262151, -1703888, 1, 196614, -1703887, 1, 131073, -1638366, 1, 131073, -1638364, 1, 196614, -1638361, 2, 131075, -1638353, 1, 196614, -1638351, 1, 131073, -1572830, 1, 131073, -1572829, 1, 131073, -1572828, 1, 131073, -1572827, 1, 131073, -1572826, 1, 131073, -1572825, 1, 131073, -1572824, 1, 196614, -1572823, 1, 196616, -1572820, 1, 131073, -1572819, 1, 131073, -1572818, 1, 131073, -1572817, 1, 131073, -1572816, 1, 131073, -1572815, 1, 131073, -1507289, 1, 131073, -1507284, 1, 131073, -1441753, 1, 131073, -1441748, 1, 131073, -1376217, 1, 131073, -1376212, 1, 131073, -1310681, 1, 131073, -1310676, 1, 131073, -1245145, 1, 131073, -1245140, 1, 131073, -1179609, 1, 131073, -1179604, 1, 131073, -1114073, 1, 131073, -1114068, 1, 131073, -1048537, 1, 131073, -1048532, 1, 131073, -983001, 1, 131073, -982996, 1, 131073, -917465, 1, 131073, -917460, 1, 131073, -851929, 1, 131073, -851924, 1, 131073, -786393, 1, 131073, -786388, 1, 131073, -720857, 1, 131073, -720852, 1, 131073, -655321, 1, 131073, -655316, 1, 131073, -589812, 1, 65538, -589811, 1, 65538, -589810, 1, 65538, -589809, 1, 65538, -589808, 1, 65538, -589807, 1, 65538, -589806, 1, 65538, -589805, 1, 65538, -589804, 1, 65538, -589803, 1, 65538, -589802, 1, 65538, -589801, 1, 65538, -589800, 1, 65538, -589799, 1, 65538, -589798, 1, 65538, -589797, 1, 65538, -589796, 1, 65538, -589795, 1, 65538, -589794, 1, 65538, -589793, 1, 65538, -589792, 1, 65538, -589791, 1, 65538, -589790, 1, 65538, -589789, 1, 65538, -589788, 1, 131073, -589787, 1, 131073, -589786, 1, 131073, -589785, 1, 131073, -589780, 2, 327693, -589779, 1, 131073, -589778, 1, 131073, -589777, 1, 131073, -589776, 1, 65538, -524276, 1, 65538, -524275, 2, 131079, -524274, 2, 131079, -524273, 2, 131079, -524272, 2, 131079, -524271, 2, 131079, -524270, 2, 131079, -524269, 2, 131079, -524268, 2, 131079, -524267, 2, 131079, -524266, 2, 131079, -524265, 2, 131079, -524264, 2, 131079, -524263, 2, 131079, -524262, 2, 262151, -524261, 1, 131074, -524260, 2, 262151, -524259, 2, 131079, -524258, 2, 131079, -524257, 2, 131079, -524256, 2, 131079, -524255, 2, 131079, -524254, 2, 131079, -524253, 1, 65538, -524252, 2, 131079, -524251, 2, 131079, -524250, 2, 131079, -524249, 2, 131079, -524248, 1, 196614, -524244, 2, 131079, -524243, 2, 131079, -524242, 2, 131079, -524241, 2, 131079, -524240, 1, 65538, -458740, 1, 65538, -458725, 1, 327687, -458717, 1, 65538, -458711, 1, 196614, -458704, 1, 65538, -393204, 1, 65538, -393181, 1, 65538, -393174, 1, 196614, -393168, 1, 65538, -327668, 1, 65538, -327645, 1, 65538, -327637, 1, 196614, -327632, 1, 65538, -262132, 1, 65538, -262126, 1, 131072, -262125, 1, 131073, -262124, 1, 131073, -262123, 1, 131073, -262122, 1, 131073, -262121, 1, 131073, -262120, 1, 131073, -262119, 1, 131073, -262118, 1, 131073, -262117, 1, 131073, -262116, 1, 131076, -262109, 1, 65538, -262099, 1, 196614, -262098, 1, 196614, -262097, 1, 196614, -262096, 1, 196614, -262095, 1, 196614, -262094, 1, 196614, -262072, 1, 131073, -262071, 1, 131073, -262070, 1, 131073, -262069, 1, 131073, -262068, 1, 131073, -262067, 1, 131073, -196596, 1, 65538, -196591, 1, 196614, -196581, 1, 131073, -196579, 1, 196614, -196573, 1, 65538, -196568, 1, 65540, -196567, 1, 131073, -196566, 1, 131073, -196565, 1, 131073, -196564, 1, 131078, -196536, 2, 262151, -196535, 2, 262151, -196534, 2, 262151, -196533, 2, 262151, -196532, 2, 262151, -196531, 1, 65538, -131060, 1, 65538, -131056, 1, 196614, -131045, 1, 131073, -131042, 1, 196614, -131037, 1, 65538, -131036, 1, 196614, -131035, 1, 196614, -130995, 1, 65538, -65524, 1, 65538, -65521, 1, 196614, -65509, 1, 131073, -65505, 1, 196614, -65501, 1, 65538, -65498, 1, 196614, -65489, 1, 131073, -65488, 1, 65538, -65487, 1, 262148, -65459, 1, 65538, 12, 1, 65538, 13, 1, 196614, 17, 1, 262146, 18, 1, 262146, 19, 1, 262146, 20, 1, 262146, 21, 1, 262146, 27, 1, 131073, 34, 1, 262149, 35, 1, 65538, 36, 1, 131073, 37, 1, 131073, 38, 1, 131073, 39, 1, 131073, 40, 1, 131073, 41, 1, 131073, 42, 1, 131073, 43, 1, 131073, 44, 1, 131073, 45, 1, 131073, 46, 1, 131073, 47, 1, 131073, 48, 1, 65538, 49, 1, 262144, 50, 1, 262144, 51, 1, 262144, 52, 1, 262144, 53, 1, 196614, 56, 1, 196615, 57, 1, 262144, 58, 1, 262144, 59, 1, 262144, 60, 1, 262144, 61, 1, 262144, 62, 1, 262144, 63, 1, 262144, 64, 1, 262144, 65, 1, 131073, 66, 1, 196614, 67, 1, 196614, 68, 1, 196614, 69, 1, 196614, 72, 1, 65538, 73, 1, 196608, 74, 1, 65539, 77, 1, 65538, 131068, 1, 65538, 65545, 1, 131073, 65546, 1, 131073, 65547, 1, 131073, 65548, 1, 131073, 65549, 1, 65538, 65550, 1, 65538, 65551, 1, 65538, 65552, 1, 65538, 65553, 1, 65538, 65554, 1, 65538, 65555, 1, 65538, 65556, 1, 65538, 65557, 1, 65538, 65558, 1, 65539, 65559, 1, 65543, 65562, 1, 196614, 65563, 1, 131073, 65569, 1, 65544, 65570, 1, 131079, 65571, 1, 131073, 65572, 1, 65538, 65573, 1, 65538, 65574, 1, 65538, 65575, 1, 65538, 65576, 1, 65538, 65577, 1, 65538, 65578, 1, 65538, 65579, 1, 131073, 65580, 1, 131073, 65581, 2, 393225, 65582, 2, 393225, 65583, 1, 131073, 65584, 1, 65538, 65585, 1, 196614, 65586, 1, 196615, 65587, 1, 196616, 65588, 1, 196614, 65593, 1, 196614, 65594, 1, 196615, 65595, 1, 196614, 65596, 1, 196616, 65597, 1, 196614, 65598, 1, 196614, 65599, 1, 196614, 65600, 1, 196614, 65601, 1, 131073, 65607, 1, 196614, 65608, 1, 65538, 65609, 1, 196613, 65610, 1, 196612, 65613, 1, 65538, 196604, 1, 65538, 196605, 2, 131075, 196606, 2, 131075, 196607, 2, 131075, 131072, 2, 131075, 131073, 2, 131075, 131074, 2, 131075, 131075, 2, 131075, 131076, 2, 131075, 131077, 2, 131075, 131078, 2, 131075, 131079, 2, 131075, 131080, 2, 131075, 131081, 2, 131075, 131082, 2, 131075, 131083, 2, 131075, 131084, 1, 131075, 131085, 2, 131075, 131086, 2, 131075, 131097, 1, 196614, 131099, 1, 131073, 131100, 2, 131072, 131107, 1, 131073, 131108, 2, 262152, 131109, 2, 262152, 131110, 2, 262152, 131111, 2, 262152, 131112, 2, 262152, 131113, 2, 262152, 131114, 2, 262152, 131115, 1, 65538, 131116, 1, 131073, 131117, 2, 393225, 131118, 2, 393225, 131119, 1, 131073, 131120, 1, 65538, 131137, 1, 131073, 131142, 1, 196614, 131144, 1, 65538, 131145, 1, 196612, 131146, 1, 196613, 131149, 1, 65538, 262094, 1, 131073, 262095, 1, 131073, 262096, 1, 131073, 262097, 1, 131073, 262098, 1, 131073, 262099, 1, 131073, 262100, 1, 131073, 262101, 1, 131073, 262102, 1, 131073, 262103, 1, 131073, 262104, 1, 131073, 262105, 1, 131073, 262106, 1, 131076, 262141, 2, 131075, 262142, 2, 393225, 262143, 2, 393225, 196608, 2, 393225, 196609, 2, 131075, 196610, 2, 131075, 196611, 2, 393225, 196612, 2, 393225, 196613, 2, 393225, 196614, 2, 131075, 196615, 2, 131075, 196616, 2, 393225, 196617, 2, 393225, 196618, 2, 393225, 196619, 2, 131075, 196620, 2, 131075, 196621, 2, 131075, 196622, 2, 131075, 196632, 1, 196614, 196635, 1, 131073, 196636, 2, 196609, 196637, 2, 131072, 196651, 1, 65538, 196652, 1, 131073, 196653, 1, 131073, 196654, 1, 131073, 196655, 1, 131073, 196656, 1, 65538, 196673, 1, 131073, 196677, 1, 196614, 196680, 1, 65538, 196681, 1, 196613, 196682, 1, 196612, 196685, 1, 65538, 327630, 1, 131073, 327631, 2, 262152, 327632, 2, 262152, 327633, 2, 262152, 327634, 2, 262152, 327635, 2, 262152, 327636, 2, 262152, 327637, 2, 262152, 327638, 2, 262152, 327639, 2, 262152, 327640, 2, 262152, 327641, 2, 262152, 327669, 2, 196609, 327677, 2, 131075, 327678, 2, 131075, 327679, 2, 131075, 262144, 2, 131075, 262145, 2, 131075, 262146, 2, 131075, 262147, 2, 131075, 262148, 2, 131075, 262149, 2, 131075, 262150, 2, 131075, 262151, 2, 131075, 262152, 2, 131075, 262153, 2, 131075, 262154, 2, 131075, 262155, 2, 131075, 262156, 2, 131075, 262157, 2, 131075, 262158, 2, 131075, 262167, 1, 196614, 262171, 1, 131073, 262172, 2, 262145, 262173, 2, 131072, 262174, 2, 131073, 262187, 1, 131073, 262188, 1, 131073, 262189, 2, 393225, 262190, 2, 393225, 262191, 1, 131073, 262192, 1, 65538, 262209, 1, 131073, 262212, 1, 196614, 262216, 1, 65538, 262217, 1, 196612, 262218, 1, 196613, 262221, 1, 65538, 393166, 1, 131073, 393212, 1, 131073, 393213, 1, 65538, 393214, 1, 65538, 393215, 1, 65538, 327680, 1, 65538, 327681, 1, 65538, 327682, 1, 131076, 327683, 1, 196614, 327684, 1, 196614, 327685, 1, 196615, 327686, 1, 196616, 327687, 1, 196614, 327688, 1, 131072, 327689, 1, 65538, 327690, 1, 65538, 327691, 1, 65538, 327692, 1, 65538, 327693, 1, 65538, 327694, 1, 65538, 327695, 1, 65538, 327696, 1, 65538, 327697, 1, 65538, 327698, 1, 65538, 327699, 1, 65538, 327700, 1, 65538, 327701, 1, 65538, 327702, 1, 65538, 327703, 1, 65538, 327704, 1, 65538, 327705, 1, 65538, 327706, 1, 65538, 327707, 1, 65538, 327708, 1, 65538, 327709, 1, 65538, 327710, 1, 65538, 327711, 1, 65538, 327712, 1, 65538, 327713, 1, 65538, 327714, 1, 65538, 327715, 1, 65538, 327716, 1, 65538, 327717, 1, 65538, 327718, 1, 65541, 327723, 1, 131073, 327724, 1, 131073, 327725, 2, 393225, 327726, 2, 393225, 327727, 1, 131073, 327728, 1, 65538, 327745, 1, 131073, 327746, 1, 196614, 327752, 1, 65538, 327753, 1, 196613, 327754, 1, 196612, 327757, 1, 65538, 458702, 1, 131073, 458711, 1, 65542, 458712, 1, 65538, 458713, 1, 65538, 458714, 1, 65538, 458715, 1, 65538, 458716, 1, 65538, 458717, 1, 65538, 458749, 2, 4, 458750, 1, 131073, 458751, 1, 131073, 393226, 1, 65546, 393227, 1, 131073, 393228, 1, 131073, 393229, 1, 65538, 393230, 1, 65538, 393231, 1, 65538, 393232, 1, 65538, 393233, 1, 65538, 393234, 1, 65538, 393235, 1, 65538, 393236, 1, 65538, 393237, 1, 65538, 393238, 1, 65538, 393239, 1, 65538, 393240, 1, 65538, 393241, 1, 65538, 393242, 1, 65538, 393243, 1, 65538, 393244, 1, 65538, 393245, 1, 65538, 393246, 1, 65538, 393247, 1, 65538, 393248, 1, 65538, 393249, 1, 65538, 393250, 1, 65538, 393251, 1, 65538, 393252, 1, 65538, 393253, 1, 65538, 393254, 1, 65538, 393255, 1, 65541, 393259, 1, 131073, 393260, 1, 131073, 393261, 1, 131073, 393262, 1, 131073, 393263, 1, 131073, 393264, 1, 131073, 393281, 1, 131073, 393283, 1, 196614, 393288, 1, 65538, 393289, 1, 196612, 393290, 1, 196613, 393293, 1, 65538, 524238, 1, 131073, 524239, 1, 131073, 524240, 1, 131073, 524241, 1, 131073, 524242, 1, 131073, 524243, 1, 131073, 524244, 1, 131073, 524245, 1, 131073, 524246, 1, 65538, 524247, 1, 65538, 524248, 1, 65538, 524249, 1, 131073, 524250, 1, 131073, 524251, 1, 131073, 524252, 1, 65538, 524253, 1, 65545, 524271, 1, 65546, 524272, 2, 4, 524273, 2, 4, 524274, 2, 4, 524275, 2, 4, 524276, 2, 4, 524277, 2, 4, 524278, 2, 4, 524279, 2, 4, 524280, 2, 4, 524281, 2, 4, 524282, 2, 4, 524283, 2, 4, 524284, 2, 4, 524285, 2, 4, 524286, 1, 131073, 524287, 1, 131073, 458763, 1, 131073, 458764, 1, 131073, 458765, 1, 65538, 458766, 1, 65538, 458767, 1, 65538, 458768, 1, 65538, 458769, 1, 65538, 458770, 1, 65538, 458771, 1, 65538, 458772, 1, 65538, 458773, 1, 65538, 458774, 1, 65538, 458775, 1, 65538, 458776, 1, 65538, 458777, 1, 131075, 458778, 1, 65538, 458779, 1, 65538, 458780, 1, 65538, 458781, 1, 65538, 458782, 1, 65538, 458783, 1, 65538, 458784, 1, 65538, 458785, 1, 65538, 458786, 1, 65538, 458787, 1, 65538, 458788, 1, 65538, 458789, 1, 65538, 458790, 1, 65538, 458791, 1, 131078, 458795, 1, 65538, 458796, 1, 131073, 458797, 2, 393225, 458798, 2, 393225, 458799, 1, 131073, 458800, 1, 131073, 458817, 1, 131073, 458820, 1, 196614, 458824, 1, 65538, 458825, 1, 196613, 458826, 1, 196612, 458829, 1, 65538, 589774, 1, 131073, 589775, 1, 131073, 589776, 1, 131073, 589777, 1, 131073, 589778, 1, 131073, 589779, 1, 131073, 589780, 1, 131073, 589781, 1, 131073, 589782, 1, 131073, 589783, 1, 131073, 589784, 1, 131073, 589785, 1, 131073, 589786, 1, 131073, 589787, 1, 65545, 589808, 1, 65546, 589809, 2, 4, 589810, 2, 4, 589811, 2, 4, 589812, 2, 4, 589813, 2, 4, 589814, 2, 4, 589815, 2, 4, 589816, 2, 4, 589817, 2, 4, 589818, 2, 4, 589819, 2, 4, 589820, 2, 4, 589821, 2, 4, 589822, 1, 131073, 589823, 1, 131073, 524297, 1, 131073, 524298, 1, 131073, 524299, 1, 131073, 524300, 1, 131073, 524313, 1, 327685, 524329, 1, 65542, 524330, 1, 65538, 524331, 1, 65538, 524332, 1, 131073, 524333, 2, 393225, 524334, 2, 393225, 524335, 1, 131073, 524336, 1, 131073, 524353, 1, 131073, 524357, 1, 196614, 524360, 1, 65538, 524361, 1, 196612, 524362, 1, 196613, 524365, 1, 65538, 655310, 1, 65547, 655311, 1, 65547, 655312, 1, 65547, 655313, 1, 65547, 655314, 1, 65547, 655315, 1, 65547, 655316, 1, 65547, 655317, 1, 65547, 655318, 1, 65547, 655319, 1, 65547, 655320, 1, 65547, 655321, 1, 65547, 655322, 1, 65547, 655345, 1, 65546, 655346, 2, 4, 655347, 2, 4, 655348, 2, 4, 655349, 2, 4, 655350, 2, 4, 655351, 2, 4, 655352, 2, 4, 655353, 2, 4, 655354, 2, 4, 655355, 2, 4, 655356, 2, 4, 655357, 2, 4, 655358, 1, 131073, 655359, 1, 131073, 589833, 1, 131073, 589834, 2, 262151, 589835, 1, 131074, 589836, 2, 262151, 589838, 2, 393226, 589840, 2, 393226, 589842, 2, 393226, 589844, 2, 393226, 589846, 2, 393226, 589848, 2, 393226, 589850, 2, 131075, 589852, 2, 131075, 589854, 2, 196610, 589864, 1, 65542, 589865, 1, 65538, 589866, 1, 65538, 589867, 1, 65538, 589868, 1, 131073, 589869, 1, 131073, 589870, 1, 131073, 589871, 1, 131073, 589872, 1, 131073, 589873, 1, 262148, 589889, 1, 131073, 589895, 1, 196614, 589896, 1, 65538, 589897, 1, 196613, 589898, 1, 196612, 589901, 1, 65538, 720857, 1, 196612, 720858, 1, 196613, 720882, 1, 196613, 720883, 1, 196612, 720893, 1, 65546, 720894, 1, 131073, 720895, 1, 131073, 655369, 1, 131073, 655371, 1, 327685, 655399, 1, 65542, 655400, 1, 65538, 655401, 1, 65538, 655402, 1, 65538, 655403, 1, 65538, 655404, 1, 131073, 655405, 2, 393225, 655406, 2, 393225, 655407, 1, 131073, 655408, 1, 131073, 655409, 1, 196614, 655410, 1, 196614, 655411, 1, 196614, 655412, 1, 196614, 655425, 1, 131073, 655430, 1, 196614, 655432, 1, 65538, 655433, 1, 196612, 655434, 1, 196613, 655437, 1, 65538, 786393, 1, 196613, 786394, 1, 196612, 786419, 1, 196613, 786420, 1, 196612, 786430, 1, 131073, 786431, 1, 131073, 720905, 1, 131073, 720925, 1, 131072, 720926, 1, 131073, 720927, 1, 65538, 720928, 1, 65538, 720929, 1, 65538, 720930, 1, 65538, 720931, 1, 65538, 720932, 1, 65538, 720933, 1, 65538, 720934, 1, 65538, 720935, 1, 65538, 720936, 1, 65538, 720937, 1, 65538, 720938, 1, 65538, 720939, 1, 65538, 720940, 1, 131073, 720941, 2, 393225, 720942, 2, 393225, 720943, 1, 131073, 720944, 1, 131073, 720945, 2, 262155, 720946, 2, 262155, 720947, 2, 262155, 720961, 1, 131073, 720965, 1, 196614, 720968, 1, 65538, 720969, 1, 196613, 720970, 1, 196612, 720973, 1, 65538, 851929, 1, 196612, 851930, 1, 196613, 851955, 1, 196612, 851956, 1, 196613, 851966, 1, 131073, 851967, 1, 131073, 786441, 1, 131073, 786448, 1, 65542, 786449, 1, 65538, 786450, 1, 65538, 786451, 1, 65538, 786452, 1, 65538, 786453, 1, 65538, 786454, 1, 65538, 786455, 1, 65538, 786456, 1, 65538, 786457, 1, 131075, 786458, 1, 65538, 786459, 1, 65538, 786460, 1, 65538, 786461, 1, 65538, 786462, 1, 65538, 786463, 1, 65538, 786464, 1, 65538, 786465, 1, 65538, 786466, 1, 65538, 786467, 1, 65538, 786468, 1, 65538, 786469, 1, 65538, 786470, 1, 65538, 786471, 1, 65538, 786472, 1, 65538, 786473, 1, 65538, 786474, 1, 65538, 786475, 1, 131073, 786476, 1, 131073, 786477, 1, 131073, 786478, 1, 131073, 786479, 1, 131073, 786480, 1, 131073, 786481, 1, 131073, 786482, 1, 131073, 786483, 1, 131073, 786484, 1, 131073, 786497, 1, 131073, 786500, 1, 196614, 786504, 1, 65538, 786505, 1, 196612, 786506, 1, 196613, 786509, 1, 65538, 917465, 1, 131073, 917466, 1, 131073, 917491, 1, 65538, 917502, 1, 131073, 917503, 1, 131073, 851977, 1, 131073, 851983, 1, 65542, 851984, 1, 65538, 851985, 1, 65538, 851986, 1, 65545, 851988, 2, 131075, 851989, 2, 131075, 851990, 2, 131075, 851991, 2, 131075, 851992, 2, 131075, 851993, 2, 131075, 851994, 2, 131075, 851995, 2, 131075, 851996, 2, 131075, 851997, 2, 131075, 851998, 2, 131075, 851999, 2, 131075, 852004, 2, 131075, 852007, 2, 196611, 852010, 1, 131073, 852011, 1, 262149, 852015, 1, 262148, 852017, 1, 196613, 852018, 1, 196613, 852019, 1, 196612, 852020, 1, 131073, 852033, 1, 131073, 852034, 1, 196614, 852039, 1, 131073, 852040, 1, 65538, 852041, 2, 262157, 852042, 1, 131073, 852045, 1, 65538, 983001, 1, 131073, 983002, 1, 131073, 983027, 1, 65538, 983038, 1, 131073, 983039, 1, 131073, 917513, 1, 131073, 917514, 1, 131073, 917515, 1, 131073, 917516, 1, 131073, 917519, 1, 65538, 917520, 1, 65538, 917521, 1, 65545, 917524, 2, 131075, 917525, 2, 131075, 917526, 2, 131075, 917527, 2, 131075, 917528, 2, 131075, 917529, 2, 131075, 917530, 2, 131075, 917531, 2, 131075, 917532, 2, 131075, 917545, 1, 262149, 917546, 1, 131073, 917547, 1, 262145, 917548, 1, 262145, 917549, 1, 262145, 917550, 1, 262145, 917551, 1, 262145, 917553, 1, 196613, 917554, 1, 196613, 917555, 1, 196613, 917556, 1, 131073, 917569, 1, 65538, 917571, 1, 196614, 917581, 1, 65538, 1048537, 1, 131073, 1048538, 1, 131073, 1048563, 1, 65538, 1048574, 1, 131073, 1048575, 1, 131073, 983051, 1, 131073, 983052, 1, 131073, 983053, 1, 65541, 983060, 2, 131075, 983061, 2, 131075, 983062, 2, 131075, 983063, 1, 196608, 983064, 1, 196608, 983065, 1, 196608, 983066, 1, 196608, 983067, 1, 196608, 983068, 1, 196608, 983069, 1, 196608, 983070, 1, 196608, 983071, 1, 196608, 983072, 1, 196608, 983073, 1, 196608, 983074, 1, 196608, 983075, 1, 196608, 983076, 1, 196608, 983077, 1, 196608, 983078, 1, 196608, 983079, 1, 196609, 983080, 1, 196609, 983081, 1, 65539, 983082, 1, 327685, 983088, 1, 196615, 983089, 1, 196614, 983090, 1, 196614, 983091, 1, 196616, 983092, 1, 131073, 983095, 2, 196619, 983105, 1, 131073, 983108, 1, 196614, 983117, 1, 65538, 1114073, 1, 131073, 1114074, 1, 131073, 1114099, 1, 65538, 1114110, 1, 131073, 1114111, 1, 131073, 1048587, 1, 131073, 1048588, 1, 131073, 1048589, 1, 65538, 1048590, 1, 65541, 1048598, 1, 196614, 1048628, 1, 131073, 1048629, 1, 131073, 1048630, 1, 131073, 1048631, 1, 131073, 1048641, 1, 131073, 1048642, 2, 327693, 1048646, 1, 196614, 1048647, 1, 196614, 1048648, 1, 65538, 1048649, 1, 65538, 1048650, 1, 65538, 1048653, 1, 65538, 1179609, 1, 131073, 1179610, 1, 131073, 1179635, 1, 65538, 1179646, 1, 131073, 1179647, 1, 131073, 1114123, 1, 131073, 1114124, 1, 131073, 1114125, 1, 65538, 1114126, 1, 65538, 1114127, 1, 65541, 1114133, 1, 196614, 1114134, 2, 131075, 1114135, 2, 131075, 1114143, 2, 131075, 1114144, 2, 131075, 1114145, 2, 131075, 1114146, 2, 131075, 1114164, 2, 262153, 1114165, 2, 262153, 1114166, 2, 262153, 1114167, 2, 262153, 1114181, 1, 196614, 1114184, 1, 65538, 1114187, 1, 65541, 1114188, 1, 65542, 1114189, 1, 65538, 1245145, 1, 131073, 1245146, 1, 131073, 1245171, 1, 65538, 1245182, 1, 131073, 1245183, 1, 131073, 1179659, 1, 131073, 1179660, 1, 131073, 1179661, 1, 65538, 1179662, 1, 65538, 1179663, 1, 65538, 1179664, 1, 65541, 1179667, 2, 196608, 1179670, 2, 131075, 1179671, 2, 131075, 1179679, 2, 131075, 1179680, 2, 131075, 1179681, 2, 131075, 1179682, 2, 131075, 1179683, 2, 131075, 1179684, 2, 131075, 1179716, 1, 196614, 1179720, 1, 65538, 1179724, 1, 65538, 1179725, 1, 65538, 1310718, 1, 131073, 1310719, 1, 131073, 1245195, 1, 131073, 1245196, 1, 131073, 1245197, 1, 65538, 1245198, 1, 65538, 1245199, 1, 65538, 1245200, 1, 65538, 1245201, 1, 65538, 1245202, 1, 65538, 1245203, 1, 65538, 1245204, 1, 65538, 1245205, 1, 65538, 1245206, 1, 65538, 1245207, 1, 65538, 1245208, 1, 65538, 1245209, 1, 65538, 1245210, 1, 65538, 1245211, 1, 65538, 1245212, 1, 65538, 1245213, 1, 65538, 1245214, 1, 65538, 1245215, 1, 65538, 1245216, 1, 65538, 1245217, 1, 65538, 1245218, 1, 65538, 1245219, 1, 65538, 1245220, 1, 65538, 1245221, 1, 65538, 1245222, 1, 65538, 1245223, 1, 65538, 1245224, 1, 65538, 1245225, 1, 65538, 1245226, 1, 65538, 1245227, 1, 65538, 1245228, 1, 65538, 1245229, 1, 65538, 1245230, 1, 65538, 1245231, 1, 65538, 1245232, 1, 65538, 1245233, 1, 131073, 1245234, 1, 131073, 1245235, 1, 131073, 1245236, 1, 131073, 1245237, 1, 131073, 1245238, 1, 131073, 1245239, 1, 131073, 1245240, 1, 131073, 1245241, 1, 131073, 1245242, 1, 131073, 1245243, 1, 131073, 1245244, 1, 131073, 1245245, 1, 65538, 1245246, 1, 65538, 1245247, 1, 65538, 1245248, 1, 131073, 1245249, 1, 131073, 1245250, 1, 131073, 1245251, 1, 131073, 1245252, 1, 131073, 1245253, 1, 131073, 1245254, 1, 131073, 1245255, 1, 131073, 1245256, 1, 65538, 1245257, 1, 65538, 1245258, 1, 65538, 1245259, 1, 65538, 1245260, 1, 65538, 1245261, 1, 65538 )

[node name="Cat" parent="Environment" instance=ExtResource( 9 )]
visible = false
position = Vector2( 2709.06, -2385.13 )
rotation = 1.60475

[node name="AnimationPlayer2" type="AnimationPlayer" parent="Environment/Cat"]
anims/fall_left = SubResource( 1 )
anims/fall_right = SubResource( 2 )

[node name="Title" type="Label" parent="Environment"]
margin_left = -2731.07
margin_top = 231.558
margin_right = -2577.07
margin_bottom = 286.558
custom_fonts/font = SubResource( 3 )
custom_colors/font_color = Color( 0.380392, 0.380392, 0.380392, 1 )
text = "CELA 01"
__meta__ = {
"_edit_use_anchors_": false
}

[node name="Teleport" type="Label" parent="Environment"]
margin_left = 1820.76
margin_top = 511.675
margin_right = 1974.76
margin_bottom = 566.675
custom_fonts/font = SubResource( 3 )
custom_colors/font_color = Color( 0.380392, 0.380392, 0.380392, 1 )
text = "TELEPORT"
__meta__ = {
"_edit_use_anchors_": false
}

[node name="Elevator" type="Label" parent="Environment"]
margin_left = 5044.12
margin_top = 929.857
margin_right = 5198.12
margin_bottom = 984.857
custom_fonts/font = SubResource( 3 )
custom_colors/font_color = Color( 0.380392, 0.380392, 0.380392, 1 )
text = "VÝTAH"
__meta__ = {
"_edit_use_anchors_": false
}

[node name="Elevator2" type="Label" parent="Environment"]
margin_left = 3145.74
margin_top = -593.908
margin_right = 3299.74
margin_bottom = -538.908
custom_fonts/font = SubResource( 3 )
custom_colors/font_color = Color( 0.380392, 0.380392, 0.380392, 1 )
text = "VÝTAH"
__meta__ = {
"_edit_use_anchors_": false
}

[node name="Elevator3" type="Label" parent="Environment"]
margin_left = 2867.35
margin_top = -1868.14
margin_right = 3033.35
margin_bottom = -1813.14
custom_fonts/font = SubResource( 3 )
custom_colors/font_color = Color( 0.380392, 0.380392, 0.380392, 1 )
text = "ŘÍDICÍ CENTRUM"
__meta__ = {
"_edit_use_anchors_": false
}

[node name="Stairs" type="Label" parent="Environment"]
margin_left = 4556.44
margin_top = 1158.5
margin_right = 4646.44
margin_bottom = 1257.5
custom_fonts/font = SubResource( 3 )
custom_colors/font_color = Color( 0.380392, 0.380392, 0.380392, 1 )
text = "SCHODY"
autowrap = true
__meta__ = {
"_edit_use_anchors_": false
}

[node name="PuzzleDoor" parent="Environment" instance=ExtResource( 7 )]
position = Vector2( -244.265, 282.248 )
puzzle_type = "GridLock"
already_solved = 1
autoclose = false
tutorial_sound = "2"

[node name="PuzzleDoor4" parent="Environment" instance=ExtResource( 7 )]
position = Vector2( -2693.8, 354.253 )
already_solved = 1
autoclose = false
tutorial_sound = "1"

[node name="Paka1" parent="Environment" instance=ExtResource( 7 )]
position = Vector2( 2136.82, 737.48 )
title = "Pro vypnutí teleportu zadejte kód"
type = "lever"
walkthrough = true
switch_on_unlock = "Teleport"
autoclose = false

[node name="PuzzleDoor5" parent="Environment" instance=ExtResource( 7 )]
position = Vector2( 2484.88, 282.448 )
autoclose = false

[node name="PuzzleDoor3" parent="Environment" instance=ExtResource( 7 )]
position = Vector2( 2554.39, 983.051 )
puzzle_type = "GridLock"
autoclose = false

[node name="PuzzleDoor6" parent="Environment" instance=ExtResource( 7 )]
position = Vector2( 3886.5, 1262.35 )
puzzle_type = "GridLock"
autoclose = false

[node name="PuzzleDoor7" parent="Environment" instance=ExtResource( 7 )]
position = Vector2( 5081.87, 1050.97 )
puzzle_type = "GridLock"
autoclose = false

[node name="PuzzleDoor8" parent="Environment" instance=ExtResource( 7 )]
position = Vector2( 3185.01, -1748.77 )
puzzle_type = "GridLockLarge"
autoclose = false

[node name="PuzzleDoor9" parent="Environment" instance=ExtResource( 7 )]
position = Vector2( 2695.16, -1748.77 )
puzzle_type = "GridLockLarge"
autoclose = false

[node name="PuzzleDoor10" parent="Environment" instance=ExtResource( 7 )]
position = Vector2( 2896.67, -69.7428 )
autoclose = false

[node name="Paka2" parent="Environment" instance=ExtResource( 7 )]
position = Vector2( 2765.14, 1012.06 )
title = "Pro vypnutí teleportu zadejte kód"
type = "lever"
walkthrough = true
switch_on_unlock = "Teleport2"
autoclose = false

[node name="FinishRight" type="Area2D" parent="Environment"]
position = Vector2( 3204.03, -1982.77 )

[node name="CollisionShape2D" type="CollisionShape2D" parent="Environment/FinishRight"]
position = Vector2( -49.2949, -13.5931 )
shape = SubResource( 4 )

[node name="FinishLeft" type="Area2D" parent="Environment"]
position = Vector2( 2595.49, -1981.1 )

[node name="CollisionShape2D" type="CollisionShape2D" parent="Environment/FinishLeft"]
position = Vector2( 115.897, -17.4082 )
shape = SubResource( 4 )

[node name="Player" parent="." groups=[
"Player",
] instance=ExtResource( 8 )]
position = Vector2( -3146.95, 367.425 )
scale = Vector2( 0.5, 0.5 )
SPEED = 28000
JUMP_SPEED = -1000

[node name="Camera2D" type="Camera2D" parent="Player"]
scale = Vector2( 2, 2 )
current = true
smoothing_enabled = true

[node name="Teleport" parent="." instance=ExtResource( 3 )]
position = Vector2( 1784.13, 736.601 )

[node name="Target" type="Position2D" parent="Teleport"]
position = Vector2( 205.136, -1106.59 )

[node name="Sprite" type="Sprite" parent="Teleport"]
scale = Vector2( 1, 3.04001 )
texture = ExtResource( 6 )
region_enabled = true
region_rect = Rect2( 795.088, 350.355, 20.3457, 68.5432 )

[node name="Teleport2" parent="." instance=ExtResource( 3 )]
position = Vector2( 2979.18, 1228.01 )

[node name="Target" type="Position2D" parent="Teleport2"]
position = Vector2( -2123.22, -439.633 )

[node name="Sprite" type="Sprite" parent="Teleport2"]
position = Vector2( -3.47803, -1.15918 )
scale = Vector2( 1, 3.04001 )
texture = ExtResource( 6 )
region_enabled = true
region_rect = Rect2( 795.088, 350.355, 20.3457, 68.5432 )

[node name="Music" type="AudioStreamPlayer" parent="."]
stream = ExtResource( 4 )
volume_db = -8.0

[node name="Elevator" type="StaticBody2D" parent="."]
position = Vector2( 5319.67, 1130.55 )
scale = Vector2( 1.24, 1 )

[node name="CollisionShape2D" type="CollisionShape2D" parent="Elevator"]
shape = SubResource( 5 )

[node name="Sprite" type="Sprite" parent="Elevator"]
modulate = Color( 0.419608, 0.815686, 0.988235, 1 )
position = Vector2( 0.804199, -1.85242 )
scale = Vector2( 0.8, 1 )
texture = ExtResource( 6 )
region_enabled = true
region_rect = Rect2( 419.769, 210.708, 138.222, 15.5556 )

[node name="AnimationPlayer" type="AnimationPlayer" parent="Elevator"]
autoplay = "moving"
anims/moving = SubResource( 6 )

[node name="Elevator2" type="StaticBody2D" parent="."]
position = Vector2( 3011.33, -1670.03 )
scale = Vector2( 1.24, 1 )

[node name="CollisionShape2D" type="CollisionShape2D" parent="Elevator2"]
shape = SubResource( 5 )

[node name="Sprite" type="Sprite" parent="Elevator2"]
modulate = Color( 0.729412, 0.980392, 1, 1 )
position = Vector2( -0.968018, 0 )
scale = Vector2( 0.8, 1 )
texture = ExtResource( 6 )
region_enabled = true
region_rect = Rect2( 420.657, 210.436, 136.889, 18.2222 )

[node name="AnimationPlayer" type="AnimationPlayer" parent="Elevator2"]
autoplay = "moving"
anims/moving = SubResource( 7 )

[node name="UI" type="CanvasLayer" parent="."]

[node name="Label" type="Label" parent="UI"]
anchor_left = 1.0
anchor_right = 1.0
margin_left = -53.6714
margin_top = 10.174
margin_right = -13.6714
margin_bottom = 52.174
custom_fonts/font = SubResource( 8 )
__meta__ = {
"_edit_use_anchors_": false
}

[node name="Control" type="Control" parent="UI"]
anchor_right = 1.0
anchor_bottom = 1.0
mouse_filter = 2
__meta__ = {
"_edit_use_anchors_": false
}

[node name="Start" type="Panel" parent="UI/Control"]
anchor_left = 0.5
anchor_top = 0.5
anchor_right = 0.5
anchor_bottom = 0.5
margin_left = -160.0
margin_top = -185.0
margin_right = 161.0
margin_bottom = 83.0
rect_scale = Vector2( 2, 2 )
__meta__ = {
"_edit_use_anchors_": false
}

[node name="Title" type="Label" parent="UI/Control/Start"]
margin_left = 20.0
margin_top = 25.0
margin_right = 292.0
margin_bottom = 107.0
custom_fonts/font = SubResource( 9 )
text = "Zadej své jméno nebo přezdívku"
align = 1
autowrap = true

[node name="LineEdit" type="LineEdit" parent="UI/Control/Start"]
margin_left = 35.0
margin_top = 111.0
margin_right = 290.0
margin_bottom = 159.0
custom_fonts/font = SubResource( 10 )
align = 1
placeholder_text = "jméno"
placeholder_alpha = 0.3
__meta__ = {
"_edit_use_anchors_": false
}

[node name="Button" type="Button" parent="UI/Control/Start"]
margin_left = 37.0
margin_top = 184.0
margin_right = 290.0
margin_bottom = 234.0
custom_styles/normal = SubResource( 11 )
custom_fonts/font = SubResource( 12 )
text = "HRÁT"
__meta__ = {
"_edit_use_anchors_": false
}

[node name="AnimationPlayer" type="AnimationPlayer" parent="UI/Control/Start"]
playback_speed = 2.0
anims/nene = SubResource( 13 )

[node name="Leaderboard" type="Panel" parent="UI/Control"]
visible = false
anchor_bottom = 1.0
margin_right = 391.0
margin_bottom = 3.0
custom_styles/panel = SubResource( 14 )

[node name="ItemList" type="ItemList" parent="UI/Control/Leaderboard"]
anchor_bottom = 1.0
margin_left = 34.0
margin_top = 84.0
margin_right = 359.0
margin_bottom = -33.0
size_flags_horizontal = 3
size_flags_vertical = 0
custom_fonts/font = SubResource( 15 )
select_mode = 1
max_columns = 2
same_column_width = true

[node name="Label" type="Label" parent="UI/Control/Leaderboard"]
margin_left = 30.0
margin_top = 21.0
margin_right = 544.0
margin_bottom = 70.0
custom_fonts/font = SubResource( 16 )
text = "Nejlepší hráči"

[node name="CloseLeaderboard" type="Button" parent="UI/Control/Leaderboard"]
margin_left = 302.308
margin_top = 23.5716
margin_right = 351.308
margin_bottom = 69.5716
custom_styles/normal = SubResource( 17 )
text = "X"

[node name="CatDialog" type="Node2D" parent="."]
modulate = Color( 1, 1, 1, 0 )
position = Vector2( 2692.25, -2315.21 )
script = ExtResource( 11 )

[node name="Msg1" type="Panel" parent="CatDialog"]
margin_right = 506.0
margin_bottom = 230.0
__meta__ = {
"_edit_use_anchors_": false
}

[node name="Label" type="Label" parent="CatDialog/Msg1"]
margin_left = 15.9998
margin_top = 22.9995
margin_right = 494.0
margin_bottom = 87.9995
custom_fonts/font = SubResource( 18 )
text = "Vidím, že počítat umíš! Když splníš poslední úkol, můžeš se stát mým pomocníkem, jsi pro?"
autowrap = true
__meta__ = {
"_edit_use_anchors_": false
}

[node name="Yes" type="Button" parent="CatDialog/Msg1"]
margin_left = 91.0
margin_top = 111.0
margin_right = 226.0
margin_bottom = 159.0
custom_styles/normal = SubResource( 19 )
custom_fonts/font = SubResource( 20 )
text = "ANO"
__meta__ = {
"_edit_use_anchors_": false
}

[node name="No" type="Button" parent="CatDialog/Msg1"]
margin_left = 284.961
margin_top = 110.975
margin_right = 417.961
margin_bottom = 157.975
custom_styles/normal = SubResource( 21 )
custom_fonts/font = SubResource( 22 )
text = "NE"

[node name="Msg2" type="Panel" parent="CatDialog"]
visible = false
margin_right = 508.0
margin_bottom = 231.0
__meta__ = {
"_edit_use_anchors_": false
}

[node name="Label" type="Label" parent="CatDialog/Msg2"]
margin_left = 13.0
margin_top = 11.0
margin_right = 494.0
margin_bottom = 129.0
custom_fonts/font = SubResource( 18 )
text = "Potom tě už nepotřebuju..  I když.. Ještě jsem neobědval, tak možná mi přece budeš k užitku, ha ha ha. Ale jestli správně odpovíš na poslední otázku, možná tě nechám jít."
autowrap = true
__meta__ = {
"_edit_use_anchors_": false
}

[node name="OK" type="Button" parent="CatDialog/Msg2"]
margin_left = 185.232
margin_top = 148.387
margin_right = 320.232
margin_bottom = 196.387
custom_styles/normal = SubResource( 19 )
custom_fonts/font = SubResource( 20 )
text = "UF..."
__meta__ = {
"_edit_use_anchors_": false
}

[node name="MsgFinish" type="Panel" parent="CatDialog"]
visible = false
margin_right = 508.0
margin_bottom = 231.0
__meta__ = {
"_edit_use_anchors_": false
}

[node name="Label" type="Label" parent="CatDialog/MsgFinish"]
margin_left = 13.0
margin_top = 11.0
margin_right = 494.0
margin_bottom = 129.0
custom_fonts/font = SubResource( 18 )
text = "Potom tě už nepotřebuju..  I když.. Ještě jsem neobědval, tak možná mi přece budeš k užitku, ha ha ha. Ale jestli správně odpovíš na poslední otázku, možná tě nechám jít."
autowrap = true
__meta__ = {
"_edit_use_anchors_": false
}

[node name="OK" type="Button" parent="CatDialog/MsgFinish"]
margin_left = 78.6235
margin_top = 154.486
margin_right = 243.624
margin_bottom = 202.486
custom_styles/normal = SubResource( 19 )
custom_fonts/font = SubResource( 20 )
text = "Zkusit znovu"
__meta__ = {
"_edit_use_anchors_": false
}

[node name="No" type="Button" parent="CatDialog/MsgFinish"]
margin_left = 270.0
margin_top = 154.0
margin_right = 411.0
margin_bottom = 205.0
custom_styles/normal = SubResource( 21 )
custom_fonts/font = SubResource( 22 )
text = "Konec"
__meta__ = {
"_edit_use_anchors_": false
}

[node name="Question" type="Panel" parent="CatDialog"]
visible = false
margin_right = 503.0
margin_bottom = 230.0
__meta__ = {
"_edit_use_anchors_": false
}

[node name="Label2" type="Label" parent="CatDialog/Question"]
margin_left = 13.0
margin_top = 11.0
margin_right = 494.0
margin_bottom = 138.0
custom_fonts/font = SubResource( 23 )
text = "Magdalenina mladší sestra Stella se právě naučila říkat R. 
A tak jí Magdalena naučila písničku „Kdyby prase mělo křídla“, v niž se R vyskytuje hned čtrnáctkrát. Malé sestřičce se písnička tak líbila, že ji hned šestkrát za sebou zazpívala. Kolikrát zaznělo během zpěvu písmeno R? Napiš číslo:"
autowrap = true
__meta__ = {
"_edit_use_anchors_": false
}

[node name="OK2" type="Button" parent="CatDialog/Question"]
margin_left = 278.516
margin_top = 160.659
margin_right = 350.516
margin_bottom = 197.659
custom_styles/normal = SubResource( 19 )
custom_fonts/font = SubResource( 20 )
text = "OK"
__meta__ = {
"_edit_use_anchors_": false
}

[node name="TextEdit" type="LineEdit" parent="CatDialog/Question"]
margin_left = 166.336
margin_top = 160.738
margin_right = 270.336
margin_bottom = 197.738
custom_styles/normal = SubResource( 24 )
custom_fonts/font = SubResource( 25 )
custom_colors/font_color = Color( 0, 0, 0, 1 )
align = 1
__meta__ = {
"_edit_use_anchors_": false
}

[node name="AnimationPlayer" type="AnimationPlayer" parent="CatDialog"]
anims/fadein = SubResource( 26 )

[node name="CameraLock" type="Position2D" parent="CatDialog"]
position = Vector2( 246.009, 177.5 )

[node name="Sfx" type="Node" parent="."]

[node name="Teleport" type="AudioStreamPlayer" parent="Sfx"]
stream = ExtResource( 12 )

[node name="HTTPRequest" type="HTTPRequest" parent="."]
[connection signal="body_entered" from="Environment/FinishRight" to="." method="_on_FinishRight_body_entered"]
[connection signal="body_entered" from="Environment/FinishLeft" to="." method="_on_FinishLeft_body_entered"]
[connection signal="pressed" from="UI/Control/Start/Button" to="." method="_on_Button_pressed"]
[connection signal="pressed" from="UI/Control/Leaderboard/CloseLeaderboard" to="." method="_on_CloseLeaderboard_pressed"]
[connection signal="pressed" from="CatDialog/Msg1/Yes" to="CatDialog" method="_on_Yes_pressed"]
[connection signal="pressed" from="CatDialog/Msg1/No" to="CatDialog" method="_on_No_pressed"]
[connection signal="pressed" from="CatDialog/Msg2/OK" to="CatDialog" method="_on_OK_pressed"]
[connection signal="pressed" from="CatDialog/MsgFinish/OK" to="." method="_on_OK_pressed"]
[connection signal="pressed" from="CatDialog/MsgFinish/No" to="." method="_on_No_pressed"]
[connection signal="pressed" from="CatDialog/Question/OK2" to="CatDialog" method="_on_OK2_pressed"]
[connection signal="request_completed" from="HTTPRequest" to="." method="_on_HTTPRequest_request_completed"]
