[gd_scene load_steps=8 format=2]

[ext_resource path="res://Components/CodeLock/Assets/btn_white.png" type="Texture" id=1]
[ext_resource path="res://Components/CodeLock/LockButton.gd" type="Script" id=2]
[ext_resource path="res://Components/CodeLock/Assets/abel-regular.otf" type="DynamicFontData" id=3]
[ext_resource path="res://Components/CodeLock/Assets/GUI Sound Effects_011.wav" type="AudioStream" id=4]

[sub_resource type="RectangleShape2D" id=1]
extents = Vector2( 24.2935, 19.0672 )

[sub_resource type="DynamicFont" id=2]
size = 22
use_mipmaps = true
use_filter = true
font_data = ExtResource( 3 )

[sub_resource type="Animation" id=3]
resource_name = "Off"
tracks/0/type = "value"
tracks/0/path = NodePath("Pressed:self_modulate")
tracks/0/interp = 1
tracks/0/loop_wrap = true
tracks/0/imported = false
tracks/0/enabled = true
tracks/0/keys = {
"times": PoolRealArray( 0, 1 ),
"transitions": PoolRealArray( 0.406126, 1 ),
"update": 0,
"values": [ Color( 1, 1, 1, 1 ), Color( 1, 1, 1, 0 ) ]
}
tracks/1/type = "value"
tracks/1/path = NodePath("Pressed:visible")
tracks/1/interp = 1
tracks/1/loop_wrap = true
tracks/1/imported = false
tracks/1/enabled = true
tracks/1/keys = {
"times": PoolRealArray( 0, 1 ),
"transitions": PoolRealArray( 1, 1 ),
"update": 1,
"values": [ true, false ]
}

[node name="LockButton" type="Area2D"]
position = Vector2( -188.043, -60.2388 )
script = ExtResource( 2 )

[node name="CollisionShape2D" type="CollisionShape2D" parent="."]
visible = false
position = Vector2( 0, 1.22105 )
shape = SubResource( 1 )

[node name="Pressed" type="Sprite" parent="."]
visible = false
modulate = Color( 0.709804, 1, 0, 0.368627 )
position = Vector2( -0.068573, 1.50867 )
texture = ExtResource( 1 )

[node name="Label" type="Label" parent="."]
margin_left = -20.3464
margin_top = -13.0393
margin_right = 19.6536
margin_bottom = 15.9607
custom_fonts/font = SubResource( 2 )
text = "1"
align = 1
valign = 1
__meta__ = {
"_edit_use_anchors_": false
}

[node name="AudioStreamPlayer" type="AudioStreamPlayer" parent="."]
stream = ExtResource( 4 )

[node name="AnimationPlayer" type="AnimationPlayer" parent="."]
anims/Off = SubResource( 3 )
[connection signal="input_event" from="." to="." method="_on_LockButton_input_event"]
